%YAML 1.1
%TAG !u! tag:unity3d.com,2011:
--- !u!54 &208023605586058134
Rigidbody:
  m_ObjectHideFlags: 0
  m_CorrespondingSourceObject: {fileID: 0}
  m_PrefabInstance: {fileID: 0}
  m_PrefabAsset: {fileID: 0}
  m_GameObject: {fileID: 300980603001294236}
  serializedVersion: 2
  m_Mass: 1
  m_Drag: 0
  m_AngularDrag: 0.05
  m_UseGravity: 1
  m_IsKinematic: 0
  m_Interpolate: 0
  m_Constraints: 0
  m_CollisionDetection: 0
--- !u!64 &7588085648385244465
MeshCollider:
  m_ObjectHideFlags: 0
  m_CorrespondingSourceObject: {fileID: 0}
  m_PrefabInstance: {fileID: 0}
  m_PrefabAsset: {fileID: 0}
  m_GameObject: {fileID: 300980603001294236}
  m_Material: {fileID: 0}
  m_IsTrigger: 0
  m_Enabled: 1
  serializedVersion: 3
  m_Convex: 1
  m_CookingOptions: 14
  m_Mesh: {fileID: -5495902117074765545, guid: faa1a929792073140988d19857597486, type: 3}
--- !u!114 &515252242132592310
MonoBehaviour:
  m_ObjectHideFlags: 0
  m_CorrespondingSourceObject: {fileID: 0}
  m_PrefabInstance: {fileID: 0}
  m_PrefabAsset: {fileID: 0}
  m_GameObject: {fileID: 300980603001294236}
  m_Enabled: 1
  m_EditorHideFlags: 0
  m_Script: {fileID: 11500000, guid: b93b6a877adcbf94c89a9d6e0c0e844d, type: 3}
  m_Name: 
  m_EditorClassIdentifier: 
  activateActionSetOnAttach:
    actionSetPath: 
  hideHandOnAttach: 1
  hideSkeletonOnAttach: 0
  hideControllerOnAttach: 0
  handAnimationOnPickup: 0
  setRangeOfMotionOnPickup: -1
  useHandObjectAttachmentPoint: 1
  attachEaseIn: 0
  snapAttachEaseInCurve:
    serializedVersion: 2
    m_Curve:
    - serializedVersion: 3
      time: 0
      value: 0
      inSlope: 0
      outSlope: 0
      tangentMode: 0
      weightedMode: 0
      inWeight: 0
      outWeight: 0
    - serializedVersion: 3
      time: 1
      value: 1
      inSlope: 0
      outSlope: 0
      tangentMode: 0
      weightedMode: 0
      inWeight: 0
      outWeight: 0
    m_PreInfinity: 2
    m_PostInfinity: 2
    m_RotationOrder: 4
  snapAttachEaseInTime: 0.15
  snapAttachEaseInCompleted: 0
  skeletonPoser: {fileID: 0}
  handFollowTransform: 1
  highlightOnHover: 1
  hideHighlight: []
--- !u!114 &3819530794245231841
MonoBehaviour:
  m_ObjectHideFlags: 0
  m_CorrespondingSourceObject: {fileID: 0}
  m_PrefabInstance: {fileID: 0}
  m_PrefabAsset: {fileID: 0}
  m_GameObject: {fileID: 300980603001294236}
  m_Enabled: 1
  m_EditorHideFlags: 0
  m_Script: {fileID: 11500000, guid: 43e53a985809f0949b9a42cc2a6888c9, type: 3}
  m_Name: 
  m_EditorClassIdentifier: 
  _itemPackage: {fileID: 0}
  requireGrabActionToTake: 0
  requireReleaseActionToReturn: 0
  showTriggerHint: 0
  attachmentFlags: 47
  takeBackItem: 0
  acceptDifferentItems: 0
  pickupEvent:
    m_PersistentCalls:
      m_Calls: []
    m_TypeName: UnityEngine.Events.UnityEvent, UnityEngine.CoreModule, Version=0.0.0.0,
      Culture=neutral, PublicKeyToken=null
  dropEvent:
    m_PersistentCalls:
      m_Calls: []
    m_TypeName: UnityEngine.Events.UnityEvent, UnityEngine.CoreModule, Version=0.0.0.0,
      Culture=neutral, PublicKeyToken=null
  justPickedUpItem: 0
--- !u!1001 &8578408780572890261
PrefabInstance:
  m_ObjectHideFlags: 0
  serializedVersion: 2
  m_Modification:
    m_TransformParent: {fileID: 0}
    m_Modifications:
    - target: {fileID: -927199367670048503, guid: faa1a929792073140988d19857597486,
        type: 3}
      propertyPath: m_Name
      value: gun
      objectReference: {fileID: 0}
    - target: {fileID: -4216859302048453862, guid: faa1a929792073140988d19857597486,
        type: 3}
      propertyPath: m_LocalPosition.x
      value: 0.206
      objectReference: {fileID: 0}
    - target: {fileID: -4216859302048453862, guid: faa1a929792073140988d19857597486,
        type: 3}
      propertyPath: m_LocalPosition.y
      value: 1.043
      objectReference: {fileID: 0}
    - target: {fileID: -4216859302048453862, guid: faa1a929792073140988d19857597486,
        type: 3}
      propertyPath: m_LocalPosition.z
      value: -0.207
      objectReference: {fileID: 0}
    - target: {fileID: -4216859302048453862, guid: faa1a929792073140988d19857597486,
        type: 3}
      propertyPath: m_LocalRotation.x
      value: -0.7071068
      objectReference: {fileID: 0}
    - target: {fileID: -4216859302048453862, guid: faa1a929792073140988d19857597486,
        type: 3}
      propertyPath: m_LocalRotation.y
      value: 0
      objectReference: {fileID: 0}
    - target: {fileID: -4216859302048453862, guid: faa1a929792073140988d19857597486,
        type: 3}
      propertyPath: m_LocalRotation.z
      value: -0
      objectReference: {fileID: 0}
    - target: {fileID: -4216859302048453862, guid: faa1a929792073140988d19857597486,
        type: 3}
      propertyPath: m_LocalRotation.w
      value: 0.7071067
      objectReference: {fileID: 0}
    - target: {fileID: -4216859302048453862, guid: faa1a929792073140988d19857597486,
        type: 3}
      propertyPath: m_RootOrder
      value: 0
      objectReference: {fileID: 0}
    - target: {fileID: -4216859302048453862, guid: faa1a929792073140988d19857597486,
        type: 3}
      propertyPath: m_LocalEulerAnglesHint.x
      value: 0
      objectReference: {fileID: 0}
    - target: {fileID: -4216859302048453862, guid: faa1a929792073140988d19857597486,
        type: 3}
      propertyPath: m_LocalEulerAnglesHint.y
      value: 0
      objectReference: {fileID: 0}
    - target: {fileID: -4216859302048453862, guid: faa1a929792073140988d19857597486,
        type: 3}
      propertyPath: m_LocalEulerAnglesHint.z
      value: 0
      objectReference: {fileID: 0}
    - target: {fileID: -4216859302048453862, guid: faa1a929792073140988d19857597486,
        type: 3}
      propertyPath: m_LocalScale.x
      value: 0.024463
      objectReference: {fileID: 0}
    - target: {fileID: -4216859302048453862, guid: faa1a929792073140988d19857597486,
        type: 3}
      propertyPath: m_LocalScale.y
      value: 0.024463
      objectReference: {fileID: 0}
    - target: {fileID: -4216859302048453862, guid: faa1a929792073140988d19857597486,
        type: 3}
      propertyPath: m_LocalScale.z
      value: 0.024463
      objectReference: {fileID: 0}
    m_RemovedComponents: []
  m_SourcePrefab: {fileID: 100100000, guid: faa1a929792073140988d19857597486, type: 3}
--- !u!1 &300980603001294236 stripped
GameObject:
  m_CorrespondingSourceObject: {fileID: -927199367670048503, guid: faa1a929792073140988d19857597486,
    type: 3}
  m_PrefabInstance: {fileID: 8578408780572890261}
  m_PrefabAsset: {fileID: 0}
